{
   "content":[
      {
         "id":1,
         "nome":"Antonio Carlos",
         "email":"antonio@email.com.br",
         "crm":"000000",
         "especialidade":"DERMATOLOGIA"
      },
      {
         "id":28,
         "nome":"Antônio Melo",
         "email":"antonio.melo@email.com.br",
         "crm":"681865",
         "especialidade":"GINECOLOGIA"
      },
      {
         "id":29,
         "nome":"Augusto Cardoso",
         "email":"augusto@email.com.br",
         "crm":"778464",
         "especialidade":"DERMATOLOGIA"
      },
      {
         "id":30,
         "nome":"Beatriz Araújo",
         "email":"beatriz@email.com.br",
         "crm":"840587",
         "especialidade":"ORTOPEDIA"
      },
      {
         "id":32,
         "nome":"Benício Nascimento",
         "email":"benicio_nascimento@email.com.br",
         "crm":"298829",
         "especialidade":"CARDIOLOGIA"
      },
      {
         "id":31,
         "nome":"Benício da Paz",
         "email":"benicio@email.com.br",
         "crm":"972369",
         "especialidade":"DERMATOLOGIA"
      },
      {
         "id":2,
         "nome":"Bruna Rocha",
         "email":"bruna@email.com.br",
         "crm":"111111",
         "especialidade":"CARDIOLOGIA"
      },
      {
         "id":8,
         "nome":"Bruno Santos",
         "email":"bruno.santos@email.com.br",
         "crm":"777777",
         "especialidade":"ORTOPEDIA"
      },
      {
         "id":46,
         "nome":"Bruno Santos",
         "email":"bruno@email.com.br",
         "crm":"787765",
         "especialidade":"ORTOPEDIA"
      },
      {
         "id":6,
         "nome":"Caio Júnior",
         "email":"caio@email.com.br",
         "crm":"555555",
         "especialidade":"CARDIOLOGIA"
      }
   ],
   "pageable":{
      "sort":{
         "empty":false,
         "sorted":true,
         "unsorted":false
      },
      "offset":10,
      "pageNumber":1,
      "pageSize":10,
      "paged":true,
      "unpaged":false
   },
   "last":false,
   "totalPages":10,
   "totalElements":95,
   "size":10,
   "number":1,
   "sort":{
      "empty":false,
      "sorted":true,
      "unsorted":false
   },
   "first":false,
   "numberOfElements":10,
   "empty":false
}